{
  "type": "minecraft:crafting_shapeless",
  "category": "misc",
  "ingredients": [
    {
      "item": "swording-mod:rennet"
    },
    {
      "item": "swording-mod:rennet"
    },
    {
      "item": "swording-mod:rennet"
    },
    {
      "item": "minecraft:milk_bucket"
    }
  ],
  "result": {
    "count": 3,
    "item": "swording-mod:cheese"
  }
}