{
  "type": "minecraft:crafting_shaped",
  "category": "equipment",
  "key": {
    "b": {
      "item": "swording-mod:seraphon"
    },
    "s": {
      "item": "swording-mod:sinizine_ingot"
    }
  },
  "pattern": [
    "bbb",
    " s ",
    " s "
  ],
  "result": {
    "item": "swording-mod:seraphon_pickaxe"
  },
  "show_notification": true
}