{
	"schemaVersion": 1,
	"id": "swording-mod",
	"version": "${version}",
	"name": "Swording Mod",
	"description": "This is an example description! Tell everyone what your mod is about!",
	"authors": [
		"Me!"
	],
	"contact": {
		"homepage": "https://fabricmc.net/",
		"sources": "https://github.com/FabricMC/fabric-example-mod"
	},
	"license": "CC0-1.0",
	"icon": "assets/swording-mod/icon.png",
	"environment": "*",
	"entrypoints": {
		"main": [
			"fr.molzonas.swordingmod.SwordingMod"
		],
		"client": [
			"fr.molzonas.swordingmod.SwordingModClient"
		]
	},
	"mixins": [
		"swording-mod.mixins.json",
		{
			"config": "swording-mod.client.mixins.json",
			"environment": "client"
		}
	],
	"depends": {
		"fabricloader": ">=0.15.9",
		"minecraft": "~1.20.1",
		"java": ">=17",
		"fabric-api": "*"
	},
	"suggests": {
		"another-mod": "*"
	}
}